ML #3 Predictive Policing
…
error_by_reg_and_fold %>% 
  arrange(desc(MAE))

## Simple feature collection with 96 features and 4 fields
## Geometry type: GEOMETRY
## Dimension:     XY
## Bounding box:  xmin: 341164.6 ymin: 552874.5 xmax: 367164.6 ymax: 594874.5
## Projected CRS: NAD_1983_HARN_StatePlane_Illinois_East_FIPS_1201
## # A tibble: 96 × 5
##    cvID              Mean_Error   MAE SD_MAE                            geometry
##    <chr>                  <dbl> <dbl>  <dbl>                       <POLYGON [m]>
##  1 Ukrainian Village     -13.0  13.0   13.0  ((353164.6 580874.5, 353164.6 5813…
##  2 Woodlawn               -8.64  8.64   8.64 ((360164.6 566874.5, 359664.6 5668…
##  3 South Shore            -6.14  6.14   6.14 ((361164.6 565874.5, 361664.6 5658…
##  4 Wicker Park            -5.80  5.80   5.80 ((353164.6 582374.5, 353164.6 5828…
##  5 East Village           -4.32  4.32   4.32 ((354664.6 580874.5, 355164.6 5808…
##  6 Chicago Lawn           -3.54  3.54   3.54 ((351664.6 566874.5, 351664.6 5673…
##  7 Washington Park        -3.48  3.48   3.48 ((358664.6 569374.5, 358664.6 5698…
##  8 Edison Park             3.12  3.12   3.12 ((342664.6 592874.5, 342664.6 5933…
##  9 Rush & Division        -3.03  3.03   3.03 ((358664.6 580874.5, 358164.6 5808…
## 10 East Side               2.65  2.65   2.65 ((365664.6 558874.5, 365664.6 5593…
## # ℹ 86 more rows

error_by_reg_and_fold %>% 
  arrange(MAE)

## Simple feature collection with 96 features and 4 fields
## Geometry type: GEOMETRY
## Dimension:     XY
## Bounding box:  xmin: 341164.6 ymin: 552874.5 xmax: 367164.6 ymax: 594874.5
## Projected CRS: NAD_1983_HARN_StatePlane_Illinois_East_FIPS_1201
## # A tibble: 96 × 5
##    cvID            Mean_Error    MAE SD_MAE                             geometry
##    <chr>                <dbl>  <dbl>  <dbl>                        <POLYGON [m]>
##  1 Archer Heights      0.0107 0.0107 0.0107 ((349664.6 571374.5, 349664.6 57187…
##  2 Lake View           0.0208 0.0208 0.0208 ((354664.6 586874.5, 354664.6 58737…
##  3 Bucktown            0.0276 0.0276 0.0276 ((353664.6 583874.5, 353664.6 58437…
##  4 Hermosa            -0.0411 0.0411 0.0411 ((349164.6 583874.5, 349164.6 58437…
##  5 West Loop           0.0835 0.0835 0.0835 ((355164.6 579874.5, 355664.6 57987…
##  6 Mckinley Park      -0.112  0.112  0.112  ((353664.6 573874.5, 354164.6 57387…
##  7 Near South Side     0.140  0.140  0.140  ((358664.6 575374.5, 358664.6 57587…
##  8 Riverdale           0.203  0.203  0.203  ((359664.6 554874.5, 359664.6 55537…
##  9 Avondale           -0.213  0.213  0.213  ((350164.6 585874.5, 350164.6 58637…
## 10 Fuller Park         0.214  0.214  0.214  ((358164.6 569374.5, 358164.6 56987…
## # ℹ 86 more rows
…
